{
    "name": "be.eloistree.FFmpegInUnity",
    "references": [
        "GUID:f127a74dcc9a1ca44b62aa25cb324c32"
    ],
    "includePlatforms": [],
    "excludePlatforms": [],
    "allowUnsafeCode": false,
    "overrideReferences": false,
    "precompiledReferences": [],
    "autoReferenced": true,
    "defineConstraints": [],
    "versionDefines": [],
    "noEngineReferences": false
}